{"count":1089,"next":"https://pokeapi.co/api/v2/location-area/?offset=40&limit=20","previous":"https://pokeapi.co/api/v2/location-area/?offset=0&limit=20","results":[{"name":"mt-coronet-1f-route-216","url":"https://pokeapi.co/api/v2/location-area/21/"},{"name":"mt-coronet-1f-route-211","url":"https://pokeapi.co/api/v2/location-area/22/"},{"name":"mt-coronet-b1f","url":"https://pokeapi.co/api/v2/location-area/23/"},{"name":"great-marsh-area-1","url":"https://pokeapi.co/api/v2/location-area/24/"},{"name":"great-marsh-area-2","url":"https://pokeapi.co/api/v2/location-area/25/"},{"name":"great-marsh-area-3","url":"https://pokeapi.co/api/v2/location-area/26/"},{"name":"great-marsh-area-4","url":"https://pokeapi.co/api/v2/location-area/27/"},{"name":"great-marsh-area-5","url":"https://pokeapi.co/api/v2/location-area/28/"},{"name":"great-marsh-area-6","url":"https://pokeapi.co/api/v2/location-area/29/"},{"name":"solaceon-ruins-2f","url":"https://pokeapi.co/api/v2/location-area/30/"},{"name":"solaceon-ruins-1f","url":"https://pokeapi.co/api/v2/location-area/31/"},{"name":"solaceon-ruins-b1f-a","url":"https://pokeapi.co/api/v2/location-area/32/"},{"name":"solaceon-ruins-b1f-b","url":"https://pokeapi.co/api/v2/location-area/33/"},{"name":"solaceon-ruins-b1f-c","url":"https://pokeapi.co/api/v2/location-area/34/"},{"name":"solaceon-ruins-b2f-a","url":"https://pokeapi.co/api/v2/location-area/35/"},{"name":"solaceon-ruins-b2f-b","url":"https://pokeapi.co/api/v2/location-area/36/"},{"name":"solaceon-ruins-b2f-c","url":"https://pokeapi.co/api/v2/location-area/37/"},{"name":"solaceon-ruins-b3f-a","url":"https://pokeapi.co/api/v2/location-area/38/"},{"name":"solaceon-ruins-b3f-b","url":"https://pokeapi.co/api/v2/location-area/39/"},{"name":"solaceon-ruins-b3f-c","url":"https://pokeapi.co/api/v2/location-area/40/"}]}